…
There is a slight trend in E recipes for better rating to be associated with more vanilla, but again n=18.  There is essentially no relationship between vanilla and rating in AR recipes, and Misc recipes had no ratings so they are not shown.


6. If we wanted to determine the nutritional information for each recipe, we would need to merge in nutritional information for each individual ingredient and then sum across ingredients.  For example, [this website](https://www.calories.info/food/baking-ingredients) offers calorie information for common baking ingredients.  

a) Use `rvest` to scrape data from the primary *table* at calories.info into a tibble called `calorie_info`.  Your tibble should look like this (where two other columns also called `Serving` have been removed):

```{r}
#> calorie_info
## A tibble: 95 × 4
#   Food              Serving Calories Kilojoule
#   <chr>             <chr>   <chr>    <chr>    
# 1 Agar-Agar         100g    26 cal   109 kJ   
# 2 Agave Syrup       100ml   310 cal  1302 kJ  
# 3 All Purpose Flour 100ml   364 cal  1529 kJ  
# 4 Almond Extract    100ml   258 cal  1084 kJ  
# 5 Almonds           100g    529 cal  2222 kJ  
# 6 Apple Pie Filling 100g    100 cal  420 kJ   
# 7 Baking Powder     100g    53 cal   223 kJ   
# 8 Baking Soda       100g    0 cal    0 kJ     
# 9 Bread Flour       100g    361 cal  1516 kJ  
#10 Brittle           100g    592 cal  2486 kJ  
## … with 85 more rows
```
…
