…
7. Create a new column in `park_data` which records the total number of activities in each park, then sort the parks from most activities to least.

```{r}
park_data |>
  mutate(num_activities = str_count(activities, ",") + 1) |>
  arrange(desc(num_activities))
```


8. Pick off all of the activities that end in "ing"; we'll refer to these as "verb activities".  Produce a count of the number of parks where each "verb activity" appears, and print the "verb activities" and their counts in order from most parks to fewest. (Note that you should consider something like "Group Camping" as different from "RV Camping" or just plain "Camping".)  Your answer should look like the tibble below:

```{r}
#| eval: FALSE

# A tibble: 57 × 2
   verb_activity              n
   <chr>                  <int>
 1 Hiking                    50
 2 Shopping                  46
 3 Stargazing                34
 4 Wildlife Watching         31
 5 Camping                   30
 6 Scenic Driving            26
 7 Horse Trekking            23
 8 Canoe or Kayak Camping    22
 9 Group Camping             22
10 Paddling                  21
# ℹ 47 more rows```
```
…
