Text analysis – SDS 264: Data Science 2
…
ℹ Use `spec()` to retrieve the full column specification for this data.
ℹ Specify the column types or set `show_col_types = FALSE` to quiet this message.

three_works |> count(title)

# A tibble: 3 × 2
  title                                           n
  <chr>                                       <int>
1 Dracula                                     15491
2 Frankenstein; Or, The Modern Prometheus      7357
3 The Strange Case of Dr. Jekyll and Mr. Hyde  2551

three_works

# A tibble: 25,399 × 3
   gutenberg_id text                                        title               
          <dbl> <chr>                                       <chr>               
 1           43 The Strange Case Of Dr. Jekyll And Mr. Hyde The Strange Case of…
 2           43 <NA>                                        The Strange Case of…
 3           43 by Robert Louis Stevenson                   The Strange Case of…
 4           43 <NA>                                        The Strange Case of…
 5           43 <NA>                                        The Strange Case of…
 6           43 Contents                                    The Strange Case of…
 7           43 <NA>                                        The Strange Case of…
 8           43 <NA>                                        The Strange Case of…
 9           43 STORY OF THE DOOR                           The Strange Case of…
10           43 <NA>                                        The Strange Case of…
# ℹ 25,389 more rows
…
1. Tidy Text Mining!

Now it’s time to tokenize and tidy this text data.

tidy_book <- frankenstein |>
  mutate(line = row_number()) |>
  unnest_tokens(word, text, token = "words")   # (new name, input)
# default for unnest_tokens is token = "words", but can also use
#   "characters", "ngrams" with say n=2, "sentences", "regex" with
#   pattern, "tweets" with strip_url, etc.

tidy_book   # one row per word, instead of one per line

# A tibble: 76,204 × 4
   gutenberg_id title                                    line word          
          <dbl> <chr>                                   <int> <chr>         
 1           84 Frankenstein; Or, The Modern Prometheus     1 frankenstein  
 2           84 Frankenstein; Or, The Modern Prometheus     2 <NA>          
 3           84 Frankenstein; Or, The Modern Prometheus     3 or            
 4           84 Frankenstein; Or, The Modern Prometheus     3 the           
 5           84 Frankenstein; Or, The Modern Prometheus     3 modern        
 6           84 Frankenstein; Or, The Modern Prometheus     3 prometheus    
 7           84 Frankenstein; Or, The Modern Prometheus     4 <NA>          
 8           84 Frankenstein; Or, The Modern Prometheus     5 by            
 9           84 Frankenstein; Or, The Modern Prometheus     5 mary          
10           84 Frankenstein; Or, The Modern Prometheus     5 wollstonecraft
# ℹ 76,194 more rows
…
What are the most common words?

tidy_book |>
  count(word, sort = TRUE)

# A tibble: 7,077 × 2
   word      n
   <chr> <int>
 1 the    4195
 2 and    2976
 3 i      2846
 4 of     2642
 5 to     2089
 6 my     1776
 7 a      1391
 8 in     1128
 9 was    1021
10 that   1017
# ℹ 7,067 more rows

Stop words (get rid of common but not useful words)

Note: If you get “Error in loadNamespace(name) : there is no package called ‘stopwords’” or “The package ‘stopwords’ is required to use this function.”, first install package stopwords.

get_stopwords() |> print(n = 50)   # snowball is default - somewhat smaller

# A tibble: 175 × 2
   word       lexicon 
   <chr>      <chr>   
 1 i          snowball
 2 me         snowball
 3 my         snowball
 4 myself     snowball
 5 we         snowball
 6 our        snowball
 7 ours       snowball
 8 ourselves  snowball
 9 you        snowball
10 your       snowball
11 yours      snowball
12 yourself   snowball
13 yourselves snowball
14 he         snowball
15 him        snowball
16 his        snowball
17 himself    snowball
18 she        snowball
19 her        snowball
20 hers       snowball
21 herself    snowball
22 it         snowball
23 its        snowball
24 itself     snowball
25 they       snowball
26 them       snowball
27 their      snowball
28 theirs     snowball
29 themselves snowball
30 what       snowball
31 which      snowball
32 who        snowball
33 whom       snowball
34 this       snowball
35 that       snowball
36 these      snowball
37 those      snowball
38 am         snowball
39 is         snowball
40 are        snowball
41 was        snowball
42 were       snowball
43 be         snowball
44 been       snowball
45 being      snowball
46 have       snowball
47 has        snowball
48 had        snowball
49 having     snowball
50 do         snowball
# ℹ 125 more rows

get_stopwords(source = "smart") |> print(n = 50)   

# A tibble: 571 × 2
   word        lexicon
   <chr>       <chr>  
 1 a           smart  
 2 a's         smart  
 3 able        smart  
 4 about       smart  
 5 above       smart  
 6 according   smart  
 7 accordingly smart  
 8 across      smart  
 9 actually    smart  
10 after       smart  
11 afterwards  smart  
12 again       smart  
13 against     smart  
14 ain't       smart  
15 all         smart  
16 allow       smart  
17 allows      smart  
18 almost      smart  
19 alone       smart  
20 along       smart  
21 already     smart  
22 also        smart  
23 although    smart  
24 always      smart  
25 am          smart  
26 among       smart  
27 amongst     smart  
28 an          smart  
29 and         smart  
30 another     smart  
31 any         smart  
32 anybody     smart  
33 anyhow      smart  
34 anyone      smart  
35 anything    smart  
36 anyway      smart  
37 anyways     smart  
38 anywhere    smart  
39 apart       smart  
40 appear      smart  
41 appreciate  smart  
42 appropriate smart  
43 are         smart  
44 aren't      smart  
45 around      smart  
46 as          smart  
47 aside       smart  
48 ask         smart  
49 asking      smart  
50 associated  smart  
# ℹ 521 more rows
…
Sentiment analysis

Explore some sentiment lexicons. You’ll want to match your choice of sentiment lexicon to your purpose:

afinn: scored from -5 (very negative) to +5 (very positive)

nrc: words are labeled with emotions like anger, fear, sadness, etc. There can be more than one row per word.

bing: binary - listed words are either negative or positive

get_sentiments(lexicon = "afinn")

# A tibble: 2,477 × 2
   word       value
   <chr>      <dbl>
 1 abandon       -2
 2 abandoned     -2
 3 abandons      -2
 4 abducted      -2
 5 abduction     -2
 6 abductions    -2
 7 abhor         -3
 8 abhorred      -3
 9 abhorrent     -3
10 abhors        -3
# ℹ 2,467 more rows

get_sentiments(lexicon = "nrc")

# A tibble: 13,872 × 2
   word        sentiment
   <chr>       <chr>    
 1 abacus      trust    
 2 abandon     fear     
 3 abandon     negative 
 4 abandon     sadness  
 5 abandoned   anger    
 6 abandoned   fear     
 7 abandoned   negative 
 8 abandoned   sadness  
 9 abandonment anger    
10 abandonment fear     
# ℹ 13,862 more rows

get_sentiments(lexicon = "bing")

# A tibble: 6,786 × 2
   word        sentiment
   <chr>       <chr>    
 1 2-faces     negative 
 2 abnormal    negative 
 3 abolish     negative 
 4 abominable  negative 
 5 abominably  negative 
 6 abominate   negative 
 7 abomination negative 
 8 abort       negative 
 9 aborted     negative 
10 aborts      negative 
# ℹ 6,776 more rows
…
get_sentiments("nrc") |> 
  filter(sentiment == "joy") |>
  inner_join(tidy_book) |>
  count(word, sort = TRUE)

Joining with `by = join_by(word)`

# A tibble: 308 × 2
   word          n
   <chr>     <int>
 1 found        87
 2 friend       71
 3 love         59
 4 hope         50
 5 happiness    49
 6 happy        46
 7 sun          45
 8 joy          42
 9 affection    40
10 journey      36
# ℹ 298 more rows

get_sentiments("nrc") |> 
  filter(sentiment == "anger") |>
  inner_join(tidy_book) |>
  count(word, sort = TRUE)

Joining with `by = join_by(word)`

# A tibble: 370 × 2
   word          n
   <chr>     <int>
 1 death        79
 2 miserable    65
 3 misery       54
 4 words        54
 5 despair      49
 6 horror       45
 7 fear         40
 8 possessed    36
 9 fiend        33
10 feeling      27
# ℹ 360 more rows
…
Count the word frequencies by title in this collection.

book_words <- three_works |>
  group_by(title) |>
  mutate(linenumber = row_number()) |>
  ungroup() |>
  unnest_tokens(word, text) 
  
book_word_count <- book_words |>
  count(word, title, sort = TRUE)

book_word_count

# A tibble: 20,714 × 3
   word  title                                       n
   <chr> <chr>                                   <int>
 1 the   Dracula                                  7915
 2 and   Dracula                                  5907
 3 i     Dracula                                  4801
 4 to    Dracula                                  4666
 5 the   Frankenstein; Or, The Modern Prometheus  4195
 6 of    Dracula                                  3634
 7 and   Frankenstein; Or, The Modern Prometheus  2976
 8 a     Dracula                                  2954
 9 i     Frankenstein; Or, The Modern Prometheus  2846
10 of    Frankenstein; Or, The Modern Prometheus  2642
# ℹ 20,704 more rows
…
The tf-idf statistic is term frequency times inverse document frequency, a quantity used for identifying terms that are especially important to a particular document. The idea of tf-idf is to find the important words for the content of each document by decreasing the weight for commonly used words and increasing the weight for words that are not used very much in a collection or corpus of documents. We want to find words that define one document as opposed to others.

tf = term frequency = proportion of times a term appears in a document.

idf = inverse document frequency = log(number of documents / number of documents with the term), so that terms that appear in fewer documents are weighted higher, since those rarer words provide more information.

There’s really no theory behind multiplying the two together - it just tends to work in practice. See this wikipedia entry for more details. (See also this site for a nice description of weaknesses of tf-idf.)

book_tfidf <- book_word_count |>
  bind_tf_idf(word, title, n)

book_tfidf   # note idf = 0 when it appears in every document

# A tibble: 20,714 × 6
   word  title                                       n     tf   idf tf_idf
   <chr> <chr>                                   <int>  <dbl> <dbl>  <dbl>
 1 the   Dracula                                  7915 0.0480     0      0
 2 and   Dracula                                  5907 0.0358     0      0
 3 i     Dracula                                  4801 0.0291     0      0
 4 to    Dracula                                  4666 0.0283     0      0
 5 the   Frankenstein; Or, The Modern Prometheus  4195 0.0550     0      0
 6 of    Dracula                                  3634 0.0220     0      0
 7 and   Frankenstein; Or, The Modern Prometheus  2976 0.0391     0      0
 8 a     Dracula                                  2954 0.0179     0      0
 9 i     Frankenstein; Or, The Modern Prometheus  2846 0.0373     0      0
10 of    Frankenstein; Or, The Modern Prometheus  2642 0.0347     0      0
# ℹ 20,704 more rows

Find high tf-idf words. The highest words will appear relatively often in one document, but not at all in others.

book_tfidf |>
  arrange(-tf_idf)

# A tibble: 20,714 × 6
   word      title                                       n      tf   idf  tf_idf
   <chr>     <chr>                                   <int>   <dbl> <dbl>   <dbl>
 1 utterson  The Strange Case of Dr. Jekyll and Mr.…   128 0.00489 1.10  0.00537
 2 jekyll    The Strange Case of Dr. Jekyll and Mr.…    84 0.00321 1.10  0.00353
 3 poole     The Strange Case of Dr. Jekyll and Mr.…    61 0.00233 1.10  0.00256
 4 van       Dracula                                   323 0.00196 1.10  0.00215
 5 helsing   Dracula                                   301 0.00182 1.10  0.00200
 6 hyde      The Strange Case of Dr. Jekyll and Mr.…    98 0.00375 0.405 0.00152
 7 lucy      Dracula                                   223 0.00135 1.10  0.00148
 8 mina      Dracula                                   210 0.00127 1.10  0.00140
 9 elizabeth Frankenstein; Or, The Modern Prometheus    88 0.00115 1.10  0.00127
10 jonathan  Dracula                                   181 0.00110 1.10  0.00120
# ℹ 20,704 more rows
…
# kind of boring - mostly proper nouns

N-grams… and beyond!

Let’s return to Frankenstein and look at 2-word combinations:

tidy_ngram <- frankenstein |>
  unnest_tokens(bigram, text, token = "ngrams", n = 2) |>
  filter(bigram != "NA")

tidy_ngram

# A tibble: 68,847 × 3
   gutenberg_id title                                   bigram               
          <dbl> <chr>                                   <chr>                
 1           84 Frankenstein; Or, The Modern Prometheus or the               
 2           84 Frankenstein; Or, The Modern Prometheus the modern           
 3           84 Frankenstein; Or, The Modern Prometheus modern prometheus    
 4           84 Frankenstein; Or, The Modern Prometheus by mary              
 5           84 Frankenstein; Or, The Modern Prometheus mary wollstonecraft  
 6           84 Frankenstein; Or, The Modern Prometheus wollstonecraft godwin
 7           84 Frankenstein; Or, The Modern Prometheus godwin shelley       
 8           84 Frankenstein; Or, The Modern Prometheus letter 1             
 9           84 Frankenstein; Or, The Modern Prometheus letter 2             
10           84 Frankenstein; Or, The Modern Prometheus letter 3             
# ℹ 68,837 more rows

What are the most common bigrams?

tidy_ngram |>
  count(bigram, sort = TRUE)

# A tibble: 38,574 × 2
   bigram      n
   <chr>   <int>
 1 of the    501
 2 of my     264
 3 in the    246
 4 i was     213
 5 i had     207
 6 that i    198
 7 and i     192
 8 and the   182
 9 to the    181
10 which i   145
# ℹ 38,564 more rows

Let’s use separate() from tidyr to remove stop words.

# stop_words contains 1149 words from 3 lexicons
bigrams_filtered <- tidy_ngram |>
  separate(bigram, c("word1", "word2"), sep = " ") |>
  filter(!word1 %in% stop_words$word,
         !word2 %in% stop_words$word) |>
  count(word1, word2, sort = TRUE)
bigrams_filtered

# A tibble: 4,677 × 3
   word1       word2          n
   <chr>       <chr>      <int>
 1 natural     philosophy    11
 2 dear        victor        10
 3 native      country       10
 4 de          lacey          9
 5 fellow      creatures      8
 6 poor        girl           8
 7 mont        blanc          7
 8 native      town           6
 9 cornelius   agrippa        5
10 countenance expressed      5
# ℹ 4,667 more rows

Now extend from a single document to our collection of documents. See which two-word combinations best identify books in the collection.

book_twowords <- three_works |>
  group_by(title) |>
  mutate(linenumber = row_number()) |>
  ungroup() |>
  unnest_tokens(bigram, text, token = "ngrams", n = 2) |>
  filter(bigram != "NA")
 
book_twowords |>
  count(bigram, sort = TRUE)

# A tibble: 102,837 × 2
   bigram      n
   <chr>   <int>
 1 of the   1494
 2 in the    952
 3 to the    596
 4 and the   579
 5 and i     554
 6 it was    526
 7 that i    526
 8 on the    507
 9 i was     484
10 i had     461
# ℹ 102,827 more rows

bigrams_filtered <- book_twowords |>
  separate(bigram, c("word1", "word2"), sep = " ") |>
  filter(!word1 %in% stop_words$word,
         !word2 %in% stop_words$word) |>
  count(word1, word2, sort = TRUE) |>
  filter(!is.na(word1) & !is.na(word2))

bigrams_filtered 

# A tibble: 13,951 × 3
   word1    word2         n
   <chr>    <chr>     <int>
 1 van      helsing     282
 2 madam    mina         82
 3 lord     godalming    63
 4 dr       van          60
 5 dr       seward       55
 6 friend   john         54
 7 seward's diary        39
 8 poor     dear         34
 9 harker's journal      31
10 _dr      seward's     26
# ℹ 13,941 more rows

bigrams_united <- bigrams_filtered |>
  unite(bigram, word1, word2, sep = " ")

bigrams_united 

# A tibble: 13,951 × 2
   bigram               n
   <chr>            <int>
 1 van helsing        282
 2 madam mina          82
 3 lord godalming      63
 4 dr van              60
 5 dr seward           55
 6 friend john         54
 7 seward's diary      39
 8 poor dear           34
 9 harker's journal    31
10 _dr seward's        26
# ℹ 13,941 more rows

bigram_tf_idf <- book_twowords |>
  count(title, bigram) |>
  bind_tf_idf(bigram, title, n) |>
  arrange(desc(tf_idf)) 

bigram_tf_idf |> arrange(desc(tf_idf))

# A tibble: 119,039 × 6
   title                                      bigram     n      tf   idf  tf_idf
   <chr>                                      <chr>  <int>   <dbl> <dbl>   <dbl>
 1 The Strange Case of Dr. Jekyll and Mr. Hy… mr ut…    69 2.92e-3  1.10 3.21e-3
 2 The Strange Case of Dr. Jekyll and Mr. Hy… the l…    61 2.58e-3  1.10 2.84e-3
 3 Dracula                                    van h…   282 1.88e-3  1.10 2.07e-3
 4 The Strange Case of Dr. Jekyll and Mr. Hy… mr hy…    29 1.23e-3  1.10 1.35e-3
 5 The Strange Case of Dr. Jekyll and Mr. Hy… dr je…    23 9.74e-4  1.10 1.07e-3
 6 The Strange Case of Dr. Jekyll and Mr. Hy… henry…    22 9.32e-4  1.10 1.02e-3
 7 The Strange Case of Dr. Jekyll and Mr. Hy… edwar…    20 8.47e-4  1.10 9.30e-4
 8 Dracula                                    the c…   121 8.08e-4  1.10 8.88e-4
 9 The Strange Case of Dr. Jekyll and Mr. Hy… the c…    16 6.78e-4  1.10 7.44e-4
10 The Strange Case of Dr. Jekyll and Mr. Hy… of ed…    14 5.93e-4  1.10 6.51e-4
# ℹ 119,029 more rows
…
Bigrams can also help us dive deeper into sentiment analysis. For example, even though “happy” carries positive sentiment, but when preceded by “not” as in this sentence: “I am not happy with you!” it conveys negative sentiment. Context can matter as much as mere presence!

Let’s see which words associated with an afinn sentiment are most frequently preceded by “not”:

afinn <- get_sentiments("afinn")

bigrams_separated <- book_twowords |>
  separate(bigram, c("word1", "word2"), sep = " ") |>
  count(word1, word2, sort = TRUE) |>
  filter(!is.na(word1) & !is.na(word2))

bigrams_separated |> filter(word1 == "not")

# A tibble: 582 × 3
   word1 word2     n
   <chr> <chr> <int>
 1 not   be       77
 2 not   to       74
 3 not   know     62
 4 not   so       38
 5 not   have     36
 6 not   a        35
 7 not   yet      34
 8 not   the      31
 9 not   for      29
10 not   been     26
# ℹ 572 more rows

not_words <- bigrams_separated |>
  filter(word1 == "not") |>
  inner_join(afinn, by = c(word2 = "word")) |>
  arrange(desc(n))

not_words

# A tibble: 123 × 4
   word1 word2       n value
   <chr> <chr>   <int> <dbl>
 1 not   like       19     2
 2 not   want       14     1
 3 not   fear       13    -2
 4 not   help       11     2
 5 not   wish        9     1
 6 not   afraid      7    -2
 7 not   care        7     2
 8 not   fail        7    -2
 9 not   leave       7    -1
10 not   despair     6    -3
# ℹ 113 more rows
…
With this approach, we could expand our list of negation words, and then possibly even adjust afinn totals to reflect context!

# An example of expanding the list of negation words
negation_words <- c("not", "no", "never", "without")

negated_words <- bigrams_separated |>
  filter(word1 %in% negation_words) |>
  inner_join(afinn, by = c(word2 = "word")) |>
  arrange(desc(n))

negated_words

# A tibble: 232 × 4
   word1 word2      n value
   <chr> <chr>  <int> <dbl>
 1 not   like      19     2
 2 not   want      14     1
 3 not   fear      13    -2
 4 no    matter    12     1
 5 no    doubt     11    -1
 6 no    no        11    -1
 7 not   help      11     2
 8 no    fear       9    -2
 9 not   wish       9     1
10 not   afraid     7    -2
# ℹ 222 more rows
…
